본인이름_사례분석.Rmd
…
gender_age_income<-welfare %>% 
  filter(!is.na(welfare$income)) %>% 
  group_by(age,gender) %>% 
  summarise(income.mean=mean(income),
            income.sd=sd(income),
            income.median=median(income),
            income.min=min(income),
            income.max=max(income),
            n=n())

## `summarise()` has grouped output by 'age'. You can override using the `.groups` argument.

gender_age_income

## # A tibble: 134 x 8
## # Groups:   age [69]
##      age gender income.mean income.sd income.median income.min income.max     n
##    <dbl> <fct>        <dbl>     <dbl>         <dbl>      <dbl>      <dbl> <int>
##  1    20 female        147.      8.27         147.       142.        153.     2
##  2    20 male           69      NA             69         69          69      1
##  3    21 female        107.     64.0          110         22         258.    19
##  4    21 male          102.     23.4           97.5       63.6       140      8
##  5    22 female        140.     82.6          150         15         358.    17
##  6    22 male          118.     65.1          103         36.7       280     14
##  7    23 female        139.     76.1          120         40         350     19
##  8    23 male          153.     61.3          139.        96         240      4
##  9    24 female        126.     63.5          136         20         302.    40
## 10    24 male          158.     63.2          155         60         280     13
## # ... with 124 more rows
…
